package projekt;
import java.util.Scanner;
import java.util.*;

class Projekt{
    public static void main(String[] args){

        Scanner scan = new Scanner(System.in);

        System.out.println("Podaj n: ");
        int a = scan.nextInt();
        int ileNie = 0;
        for(int i=0; i<a; i++)
        {
            System.out.println("Podaj n: ");
            int x = scan.nextInt();
            if(x%3==0 && x%5!=0)
            {
                ileNie+=1;
            }
        }
        System.out.println("podzielnych przez 3 i niepodzielnych przez 5 jest: "+ileNie);
}
}