package projekt;
import java.util.Scanner;
import java.util.*;

class Projekt{
    public static void main(String[] args){

        Scanner scan = new Scanner(System.in);

        System.out.println("Podaj n: ");
        int x = scan.nextInt();
        if(x>=1 && x<=100)
        {
        int[] tab = new int [x]; 

        for (int i=0; i<tab.length; i++) 
        {
            System.out.println("Podaj liczbe: ");
            int a = scan.nextInt();
            if (a<=999 && a>=-999)tab[i] = a;
        }
        for(int i=0; i<tab.length; i++)
        {
            if(tab[i]<0) tab[i]=-1;
            else if(tab[i]>0) tab[i]=1;
        }
        for(int i=0; i<tab.length; i++)
        {
            System.out.println(tab[i]);    
        }
}
}
}